<?xml version="1.0" encoding="UTF-8" standalone="no"?><!-- Created with Inkscape (http://www.inkscape.org/) -->

<svg xmlns:dc="http://purl.org/dc/elements/1.1/" xmlns:cc="http://creativecommons.org/ns#"
    xmlns:rdf="http://www.w3.org/1999/02/22-rdf-syntax-ns#" xmlns="http://www.w3.org/2000/svg"
    xmlns:sodipodi="http://sodipodi.sourceforge.net/DTD/sodipodi-0.dtd"
    xmlns:inkscape="http://www.inkscape.org/namespaces/inkscape" width="187mm" height="55mm"
    viewBox="0 0 662.59836 194.88178" id="svg7961" version="1.1" inkscape:version="0.91 r13725"
    inkscape:export-filename="D:\Wolfgang\Documents\Dev\Projects\tomato\android\assets\textures\eyes.png"
    inkscape:export-xdpi="139.08876" inkscape:export-ydpi="139.08876" sodipodi:docname="eyes.svg">
    <defs id="defs7963" />
    <sodipodi:namedview id="base" pagecolor="#ffffff" bordercolor="#666666" borderopacity="1.0"
        inkscape:pageopacity="0.0" inkscape:pageshadow="2" inkscape:zoom="0.7"
        inkscape:cx="163.84944" inkscape:cy="-37.828789" inkscape:document-units="px"
        inkscape:current-layer="layer1" showgrid="false" inkscape:window-width="1366"
        inkscape:window-height="705" inkscape:window-x="-8" inkscape:window-y="-8"
        inkscape:window-maximized="1" />
    <metadata id="metadata7966">
        <rdf:RDF>
            <cc:Work rdf:about="">
                <dc:format>image/svg+xml</dc:format>
                <dc:type rdf:resource="http://purl.org/dc/dcmitype/StillImage" />
                <dc:title></dc:title>
            </cc:Work>
        </rdf:RDF>
    </metadata>
    <g inkscape:label="Ebene 1" inkscape:groupmode="layer" id="layer1"
        transform="translate(0,-857.48093)">
        <g id="g4390" transform="matrix(0.09001137,0,0,0.077077,-353.33477,1271.2989)">
            <path sodipodi:nodetypes="cccccccc" inkscape:connector-curvature="0" id="path7350-65-7"
                d="m 4014.2743,-4997.1034 2485.284,1309.3908 -2329.1577,752.6012 -107.3439,-288.6573 1133.4218,-327.2055 -11.9397,-435.0612 -1183.3413,-530.7496 z"
                style="display:inline;fill:#000000;stroke:#000000;stroke-width:125.7881546;stroke-linecap:butt;stroke-linejoin:miter;stroke-miterlimit:4;stroke-dasharray:none;stroke-opacity:1" />
            <path sodipodi:nodetypes="cccccccc" inkscape:connector-curvature="0" id="path7350-6-0-7"
                d="m 11193.522,-5236.694 -2756.9409,1171.1741 2583.7019,673.2304 119.113,-258.2394 -1086.402,-287.9181 10.234,-402.7102 1144.395,-465.9338 z"
                style="display:inline;fill:#000000;stroke:#000000;stroke-width:125.30036926;stroke-linecap:butt;stroke-linejoin:miter;stroke-miterlimit:4;stroke-dasharray:none;stroke-opacity:1" />
        </g>
    </g>
</svg>
