<?xml version="1.0" encoding="UTF-8" standalone="no"?><!-- Created with Inkscape (http://www.inkscape.org/) -->

<svg xmlns:dc="http://purl.org/dc/elements/1.1/" xmlns:cc="http://creativecommons.org/ns#"
    xmlns:rdf="http://www.w3.org/1999/02/22-rdf-syntax-ns#" xmlns="http://www.w3.org/2000/svg"
    xmlns:xlink="http://www.w3.org/1999/xlink"
    xmlns:sodipodi="http://sodipodi.sourceforge.net/DTD/sodipodi-0.dtd"
    xmlns:inkscape="http://www.inkscape.org/namespaces/inkscape" width="1280" height="384" id="svg2"
    version="1.1" inkscape:version="0.48.5 r10040" sodipodi:docname="ground_skulls.svg"
    inkscape:export-filename="C:\AndroidDevelopment\Workspace\tomato\images\backgrounds\dynamic\ground_skulls.png"
    inkscape:export-xdpi="90" inkscape:export-ydpi="90">
    <defs id="defs4">
        <linearGradient gradientTransform="matrix(1.1325957,0,0,1.2204891,-2.0836472,-14.111305)"
            gradientUnits="userSpaceOnUse" y2="64" x2="1.8397096" y1="11.562008" x1="1.8397096"
            id="linearGradient4407" xlink:href="#linearGradient4401" inkscape:collect="always" />
        <linearGradient gradientUnits="userSpaceOnUse" y2="64" x2="0" y1="0" x1="0"
            id="linearGradient4279" xlink:href="#linearGradient4273" inkscape:collect="always" />
        <linearGradient id="linearGradient4273">
            <stop id="stop4275" offset="0" style="stop-color:#ac9393;stop-opacity:1;" />
            <stop id="stop4277" offset="1" style="stop-color:#513e3e;stop-opacity:1;" />
        </linearGradient>
        <linearGradient id="linearGradient4401">
            <stop id="stop4403" offset="0" style="stop-color:#c8b7b7;stop-opacity:1;" />
            <stop id="stop4405" offset="1" style="stop-color:#392c2c;stop-opacity:1;" />
        </linearGradient>
        <linearGradient gradientUnits="userSpaceOnUse" y2="64" x2="0" y1="0" x1="0"
            id="linearGradient4279-8" xlink:href="#linearGradient4273-8"
            inkscape:collect="always" />
        <linearGradient id="linearGradient4273-8">
            <stop id="stop4275-2" offset="0" style="stop-color:#ac9393;stop-opacity:1;" />
            <stop id="stop4277-4" offset="1" style="stop-color:#513e3e;stop-opacity:1;" />
        </linearGradient>
        <linearGradient gradientTransform="matrix(1.1325957,0,0,1.2204891,-2.0836472,-14.111305)"
            gradientUnits="userSpaceOnUse" y2="64" x2="1.8397096" y1="11.562008" x1="1.8397096"
            id="linearGradient4407-5" xlink:href="#linearGradient4401-5"
            inkscape:collect="always" />
        <linearGradient id="linearGradient4401-5">
            <stop id="stop4403-1" offset="0" style="stop-color:#c8b7b7;stop-opacity:1;" />
            <stop id="stop4405-7" offset="1" style="stop-color:#392c2c;stop-opacity:1;" />
        </linearGradient>
        <linearGradient gradientUnits="userSpaceOnUse" y2="64" x2="0" y1="0" x1="0"
            id="linearGradient4279-1" xlink:href="#linearGradient4273-7"
            inkscape:collect="always" />
        <linearGradient id="linearGradient4273-7">
            <stop id="stop4275-4" offset="0" style="stop-color:#ac9393;stop-opacity:1;" />
            <stop id="stop4277-0" offset="1" style="stop-color:#513e3e;stop-opacity:1;" />
        </linearGradient>
        <linearGradient gradientTransform="matrix(1.1325957,0,0,1.2204891,-2.0836472,-14.111305)"
            gradientUnits="userSpaceOnUse" y2="64" x2="1.8397096" y1="11.562008" x1="1.8397096"
            id="linearGradient4407-9" xlink:href="#linearGradient4401-4"
            inkscape:collect="always" />
        <linearGradient id="linearGradient4401-4">
            <stop id="stop4403-8" offset="0" style="stop-color:#c8b7b7;stop-opacity:1;" />
            <stop id="stop4405-8" offset="1" style="stop-color:#392c2c;stop-opacity:1;" />
        </linearGradient>
        <linearGradient gradientUnits="userSpaceOnUse" y2="64" x2="0" y1="0" x1="0"
            id="linearGradient4279-4" xlink:href="#linearGradient4273-2"
            inkscape:collect="always" />
        <linearGradient id="linearGradient4273-2">
            <stop id="stop4275-3" offset="0" style="stop-color:#ac9393;stop-opacity:1;" />
            <stop id="stop4277-2" offset="1" style="stop-color:#513e3e;stop-opacity:1;" />
        </linearGradient>
        <linearGradient gradientTransform="matrix(1.1325957,0,0,1.2204891,-2.0836472,-14.111305)"
            gradientUnits="userSpaceOnUse" y2="64" x2="1.8397096" y1="11.562008" x1="1.8397096"
            id="linearGradient4407-2" xlink:href="#linearGradient4401-1"
            inkscape:collect="always" />
        <linearGradient id="linearGradient4401-1">
            <stop id="stop4403-6" offset="0" style="stop-color:#c8b7b7;stop-opacity:1;" />
            <stop id="stop4405-85" offset="1" style="stop-color:#392c2c;stop-opacity:1;" />
        </linearGradient>
        <linearGradient gradientUnits="userSpaceOnUse" y2="64" x2="0" y1="0" x1="0"
            id="linearGradient4279-12" xlink:href="#linearGradient4273-3"
            inkscape:collect="always" />
        <linearGradient id="linearGradient4273-3">
            <stop id="stop4275-34" offset="0" style="stop-color:#ac9393;stop-opacity:1;" />
            <stop id="stop4277-1" offset="1" style="stop-color:#513e3e;stop-opacity:1;" />
        </linearGradient>
        <linearGradient gradientTransform="matrix(1.1325957,0,0,1.2204891,-2.0836472,-14.111305)"
            gradientUnits="userSpaceOnUse" y2="64" x2="1.8397096" y1="11.562008" x1="1.8397096"
            id="linearGradient4407-1" xlink:href="#linearGradient4401-3"
            inkscape:collect="always" />
        <linearGradient id="linearGradient4401-3">
            <stop id="stop4403-87" offset="0" style="stop-color:#c8b7b7;stop-opacity:1;" />
            <stop id="stop4405-4" offset="1" style="stop-color:#392c2c;stop-opacity:1;" />
        </linearGradient>
        <linearGradient gradientTransform="translate(-0.25253814,0)" gradientUnits="userSpaceOnUse"
            y2="1052.3622" x2="0" y1="988.36218" x1="0" id="linearGradient3059"
            xlink:href="#linearGradient3049" inkscape:collect="always" />
        <linearGradient gradientTransform="matrix(0.54836596,0,0,1.0053854,14.725052,988.0561)"
            gradientUnits="userSpaceOnUse" y2="64" x2="0" y1="2.6171874e-006" x1="0"
            id="linearGradient3057" xlink:href="#linearGradient3049" inkscape:collect="always" />
        <linearGradient gradientUnits="userSpaceOnUse" y2="64" x2="0" y1="2.6171874e-006" x1="0"
            id="linearGradient3055" xlink:href="#linearGradient3049" inkscape:collect="always" />
        <linearGradient gradientTransform="matrix(1.1325957,0,0,1.2204891,-2.0836472,-14.111305)"
            gradientUnits="userSpaceOnUse" y2="64" x2="1.8397096" y1="11.562008" x1="1.8397096"
            id="linearGradient4407-4" xlink:href="#linearGradient4401-17"
            inkscape:collect="always" />
        <linearGradient gradientUnits="userSpaceOnUse" y2="64" x2="0" y1="0" x1="0"
            id="linearGradient4279-2" xlink:href="#linearGradient4273-9"
            inkscape:collect="always" />
        <linearGradient id="linearGradient4273-9">
            <stop id="stop4275-48" offset="0" style="stop-color:#ac9393;stop-opacity:1;" />
            <stop id="stop4277-8" offset="1" style="stop-color:#513e3e;stop-opacity:1;" />
        </linearGradient>
        <linearGradient id="linearGradient4401-17">
            <stop id="stop4403-4" offset="0" style="stop-color:#c8b7b7;stop-opacity:1;" />
            <stop id="stop4405-0" offset="1" style="stop-color:#392c2c;stop-opacity:1;" />
        </linearGradient>
        <linearGradient id="linearGradient3049">
            <stop id="stop3051" offset="0" style="stop-color:#cccccc;stop-opacity:1;" />
            <stop id="stop3053" offset="1" style="stop-color:#474747;stop-opacity:1;" />
        </linearGradient>
        <linearGradient gradientTransform="matrix(1.1325957,0,0,1.2204891,-2.0836472,-14.111305)"
            gradientUnits="userSpaceOnUse" y2="64" x2="1.8397096" y1="11.562008" x1="1.8397096"
            id="linearGradient4407-22" xlink:href="#linearGradient4401-11"
            inkscape:collect="always" />
        <linearGradient gradientUnits="userSpaceOnUse" y2="64" x2="0" y1="0" x1="0"
            id="linearGradient4279-3" xlink:href="#linearGradient4273-76"
            inkscape:collect="always" />
        <linearGradient id="linearGradient4273-76">
            <stop id="stop4275-1" offset="0" style="stop-color:#ac9393;stop-opacity:1;" />
            <stop id="stop4277-42" offset="1" style="stop-color:#513e3e;stop-opacity:1;" />
        </linearGradient>
        <linearGradient id="linearGradient4401-11">
            <stop id="stop4403-5" offset="0" style="stop-color:#c8b7b7;stop-opacity:1;" />
            <stop id="stop4405-2" offset="1" style="stop-color:#392c2c;stop-opacity:1;" />
        </linearGradient>
        <linearGradient gradientTransform="translate(-0.25253814,0)" gradientUnits="userSpaceOnUse"
            y2="1052.3622" x2="0" y1="988.36218" x1="0" id="linearGradient3059-9"
            xlink:href="#linearGradient3049-2" inkscape:collect="always" />
        <linearGradient id="linearGradient3049-2">
            <stop id="stop3051-7" offset="0" style="stop-color:#cccccc;stop-opacity:1;" />
            <stop id="stop3053-9" offset="1" style="stop-color:#474747;stop-opacity:1;" />
        </linearGradient>
        <linearGradient gradientTransform="matrix(0.54836596,0,0,1.0053854,14.725052,988.0561)"
            gradientUnits="userSpaceOnUse" y2="64" x2="0" y1="2.6171874e-006" x1="0"
            id="linearGradient3057-5" xlink:href="#linearGradient3049-2"
            inkscape:collect="always" />
        <linearGradient id="linearGradient3170">
            <stop id="stop3172" offset="0" style="stop-color:#cccccc;stop-opacity:1;" />
            <stop id="stop3174" offset="1" style="stop-color:#474747;stop-opacity:1;" />
        </linearGradient>
        <linearGradient gradientUnits="userSpaceOnUse" y2="64" x2="0" y1="2.6171874e-006" x1="0"
            id="linearGradient3055-4" xlink:href="#linearGradient3049-2"
            inkscape:collect="always" />
        <linearGradient id="linearGradient3177">
            <stop id="stop3179" offset="0" style="stop-color:#cccccc;stop-opacity:1;" />
            <stop id="stop3181" offset="1" style="stop-color:#474747;stop-opacity:1;" />
        </linearGradient>
        <linearGradient y2="64" x2="0" y1="2.6171874e-006" x1="0" gradientUnits="userSpaceOnUse"
            id="linearGradient3187" xlink:href="#linearGradient3049-2" inkscape:collect="always" />
    </defs>
    <sodipodi:namedview id="base" pagecolor="#000000" bordercolor="#000000" borderopacity="1"
        inkscape:pageopacity="0" inkscape:pageshadow="2" inkscape:zoom="0.53807938"
        inkscape:cx="636.85785" inkscape:cy="114.71718" inkscape:document-units="px"
        inkscape:current-layer="layer1" showgrid="false" width="1052.36px" inkscape:snap-page="true"
        inkscape:snap-grids="false" inkscape:window-width="1366" inkscape:window-height="705"
        inkscape:window-x="-8" inkscape:window-y="-8" inkscape:window-maximized="1"
        borderlayer="false" showborder="true" inkscape:showpageshadow="false"
        inkscape:snap-global="false" inkscape:snap-bbox="false" inkscape:bbox-paths="true"
        inkscape:bbox-nodes="true" inkscape:snap-bbox-edge-midpoints="true"
        inkscape:snap-bbox-midpoints="true" inkscape:snap-to-guides="true"
        inkscape:snap-center="false" showguides="true" inkscape:guide-bbox="true">
        <inkscape:grid type="xygrid" id="grid2988" empspacing="5" visible="true" enabled="true"
            snapvisiblegridlinesonly="true" />
    </sodipodi:namedview>
    <metadata id="metadata7">
        <rdf:RDF>
            <cc:Work rdf:about="">
                <dc:format>image/svg+xml</dc:format>
                <dc:type rdf:resource="http://purl.org/dc/dcmitype/StillImage" />
                <dc:title></dc:title>
            </cc:Work>
        </rdf:RDF>
    </metadata>
    <g inkscape:groupmode="layer" id="layer2" inkscape:label="Layer 1" style="display:none"
        transform="translate(0,-384)">
        <path
            style="fill:#0c0806;fill-opacity:1;stroke:#000000;stroke-width:0;stroke-linecap:butt;stroke-linejoin:miter;stroke-miterlimit:4;stroke-opacity:1;stroke-dasharray:none;display:inline"
            d="m 0,767.75693 0,-180.85545 323.31102,-7.23424 185.81092,28.9369 464.52733,0 226.68943,-21.70266 308.4459,-36.17108 96.6218,7.2342 371.6218,-14.46838 260.1354,28.93684 322.8364,14.47383 0,181.09314 z"
            id="path3157" inkscape:connector-curvature="0" sodipodi:nodetypes="ccccccccccccc" />
    </g>
    <g inkscape:groupmode="layer" id="layer3" inkscape:label="ground">
        <rect
            style="opacity:0.98999999;fill:#4e7635;fill-opacity:1;stroke:#000000;stroke-width:0;stroke-linecap:butt;stroke-linejoin:miter;stroke-miterlimit:4;stroke-opacity:1;stroke-dasharray:none"
            id="rect4053" width="1280" height="128" x="0" y="256" ry="0.33928818" />
    </g>
    <g inkscape:label="Layer 0" inkscape:groupmode="layer" id="layer1"
        transform="translate(0,-668.36227)" style="display:inline">
        <image y="860.94513" x="729.11908" id="image3562"
            xlink:href="file:///C:/AndroidDevelopment/Workspace/tomato/images/actors/skull/default/default0.png"
            height="192" width="192" />
        <use id="use3609" xlink:href="#image3562" x="0" y="0" width="2560" height="256"
            transform="matrix(-0.5722999,-0.48473996,0.48473996,-0.5722999,130.33485,1886.4752)" />
        <use id="use3611" xlink:href="#image3562" x="0" y="0" width="2560" height="256"
            transform="matrix(-0.74889247,-0.04074385,0.04074385,-0.74889247,775.63222,1714.2996)" />
        <use id="use3613" xlink:href="#image3562" x="0" y="0" width="2560" height="256"
            transform="matrix(-0.71742479,0.21863594,-0.21863594,-0.71742479,1037.8795,1470.9134)" />
        <use id="use3615" xlink:href="#image3562" x="0" y="0" width="2560" height="256"
            transform="matrix(-0.09752732,0.74363191,-0.74363191,-0.09752732,986.77738,488.53322)" />
        <use id="use3617" xlink:href="#image3562" x="0" y="0" width="2560" height="256"
            transform="matrix(0.44130141,-0.60642647,0.60642647,0.44130141,-328.05583,1046.1362)" />
        <use id="use3619" xlink:href="#image3562" x="0" y="0" width="2560" height="256"
            transform="matrix(-0.14795716,-0.73526096,0.73526096,-0.14795716,97.866988,1810.0851)" />
        <use id="use3623" xlink:href="#image3562" x="0" y="0" width="2560" height="256"
            transform="matrix(0.09917567,0.74341387,-0.74341387,0.09917567,920.81833,282.51742)" />
        <use id="use3625" xlink:href="#image3562" x="0" y="0" width="2560" height="256"
            transform="matrix(0.66353197,0.34960739,-0.34960739,0.66353197,137.79874,46.986609)" />
        <use id="use3627" xlink:href="#image3562" x="0" y="0" width="2560" height="256"
            transform="matrix(0.01916703,-0.74975504,0.74975504,0.01916703,-304.09927,1612.2244)" />
        <use id="use3629" xlink:href="#image3562" x="0" y="0" width="2560" height="256"
            transform="matrix(0.66097246,0.35442263,-0.35442263,0.66097246,145.23746,91.697389)" />
        <use id="use3631" xlink:href="#image3562" x="0" y="0" width="2560" height="256"
            transform="matrix(-0.12304391,-0.73983795,0.73983795,-0.12304391,-231.33052,1643.3999)" />
        <use id="use3633" xlink:href="#image3562" x="0" y="0" width="2560" height="256"
            transform="matrix(0.70166112,0.26489937,-0.26489937,0.70166112,664.95749,28.427157)" />
        <use id="use3635" xlink:href="#image3562" x="0" y="0" width="2560" height="256"
            transform="matrix(-0.46201907,0.5907947,-0.5907947,-0.46201907,1470.0422,955.40238)" />
        <use id="use3637" xlink:href="#image3562" x="0" y="0" width="2560" height="256"
            transform="matrix(-0.68857641,0.29725835,-0.29725835,-0.68857641,2089.3425,1446.8535)" />
        <use id="use3639" xlink:href="#image3562" x="0" y="0" width="2560" height="256"
            transform="matrix(0.55476653,-0.50471189,0.50471189,0.55476653,-350.89869,856.64983)" />
        <use id="use3641" xlink:href="#image3562" x="0" y="0" width="2560" height="256"
            transform="matrix(-0.5140809,-0.54609599,0.54609599,-0.5140809,587.96072,1887.0636)" />
        <use id="use3643" xlink:href="#image3562" x="0" y="0" width="2560" height="256"
            transform="matrix(-0.74444306,-0.09112926,0.09112926,-0.74444306,1289.4634,1730.8783)" />
        <use id="use3645" xlink:href="#image3562" x="0" y="0" width="2560" height="256"
            transform="matrix(0.71536969,0.22526918,-0.22526918,0.71536969,414.70655,181.36129)" />
        <use id="use3647" xlink:href="#image3562" x="0" y="0" width="2560" height="256"
            transform="matrix(-0.28587448,-0.69337997,0.69337997,-0.28587448,405.90226,1754.619)" />
        <use id="use3649" xlink:href="#image3562" x="0" y="0" width="2560" height="256"
            transform="matrix(-0.50487753,0.5546158,-0.5546158,-0.50487753,1884.1837,949.5972)" />
        <use id="use3651" xlink:href="#image3562" x="0" y="0" width="2560" height="256"
            transform="matrix(-0.49762622,-0.56113113,0.56113113,-0.49762622,997.40846,1865.7075)" />
        <use id="use3653" xlink:href="#image3562" x="0" y="0" width="2560" height="256"
            transform="matrix(0.04084387,-0.74888703,0.74888703,0.04084387,497.81791,1486.085)" />
        <use id="use3655" xlink:href="#image3562" x="0" y="0" width="2560" height="256"
            transform="matrix(0.40755238,-0.62960389,0.62960389,0.40755238,256.34777,1092.5158)" />
        <use id="use3657" xlink:href="#image3562" x="0" y="0" width="2560" height="256"
            transform="matrix(0.21540799,0.71840058,-0.71840058,0.21540799,1712.4487,153.77784)" />
        <use id="use3659" xlink:href="#image3562" x="0" y="0" width="2560" height="256"
            transform="matrix(-0.58146139,0.47371157,-0.47371157,-0.58146139,2121.3115,1136.0557)" />
        <use id="use3661" xlink:href="#image3562" x="0" y="0" width="2560" height="256"
            transform="matrix(-0.20892791,-0.72031183,0.72031183,-0.20892791,679.12185,1769.3834)" />
        <use id="use3663" xlink:href="#image3562" x="0" y="0" width="2560" height="256"
            transform="matrix(0.3078074,0.68392588,-0.68392588,0.3078074,1603.3855,115.51554)" />
        <use id="use3665" xlink:href="#image3562" x="0" y="0" width="2560" height="256"
            transform="matrix(-0.65640919,-0.36280431,0.36280431,-0.65640919,1394.2784,1905.7212)" />
        <use id="use3667" xlink:href="#image3562" x="0" y="0" width="2560" height="256"
            transform="matrix(0.39540531,-0.63730263,0.63730263,0.39540531,273.1364,1129.1139)" />
        <use id="use3669" xlink:href="#image3562" x="0" y="0" width="2560" height="256"
            transform="matrix(-0.72924763,-0.17520815,0.17520815,-0.72924763,1601.5261,1694.978)" />
        <use id="use3671" xlink:href="#image3562" x="0" y="0" width="2560" height="256"
            transform="matrix(0.68188159,0.31230993,-0.31230993,0.68188159,899.90958,122.1788)" />
        <use id="use3673" xlink:href="#image3562" x="0" y="0" width="2560" height="256"
            transform="matrix(0.58122394,-0.47400287,0.47400287,0.58122394,-195.30829,763.13348)" />
        <use id="use3675" xlink:href="#image3562" x="0" y="0" width="2560" height="256"
            transform="matrix(0.13595588,0.73757441,-0.73757441,0.13595588,1877.447,253.25116)" />
        <use id="use3677" xlink:href="#image3562" x="0" y="0" width="2560" height="256"
            transform="matrix(0.71413055,-0.22916711,0.22916711,0.71413055,-577.07301,378.32462)" />
        <use id="use3679" xlink:href="#image3562" x="0" y="0" width="2560" height="256"
            transform="matrix(-0.69515185,-0.28153847,0.28153847,-0.69515185,612.53779,1772.3696)" />
        <use id="use3681" xlink:href="#image3562" x="0" y="0" width="2560" height="256"
            transform="matrix(-0.68584303,-0.30351169,0.30351169,-0.68584303,1318.2277,1904.704)" />
        <use id="use3683" xlink:href="#image3562" x="0" y="0" width="2560" height="256"
            transform="matrix(0.74997187,-0.0064951,0.0064951,0.74997187,393.2886,125.19787)" />
        <use id="use3685" xlink:href="#image3562" x="0" y="0" width="2560" height="256"
            transform="matrix(0.34773685,0.66451418,-0.66451418,0.34773685,1017.5377,31.729027)" />
        <use id="use3687" xlink:href="#image3562" x="0" y="0" width="2560" height="256"
            transform="matrix(-0.43991064,0.60743611,-0.60743611,-0.43991064,1052.3976,879.85149)" />
        <use id="use3689" xlink:href="#image3562" x="0" y="0" width="2560" height="256"
            transform="matrix(-0.74089909,0.11648405,-0.11648405,-0.74089909,810.95179,1632.2309)" />
        <use id="use3691" xlink:href="#image3562" x="0" y="0" width="2560" height="256"
            transform="matrix(-0.67995076,-0.31649164,0.31649164,-0.67995076,327.18417,1865.2794)" />
        <use id="use3693" xlink:href="#image3562" x="0" y="0" width="2560" height="256"
            transform="matrix(-0.74971023,0.02084624,-0.02084624,-0.74971023,1684.6444,1760.5427)" />
        <use id="use3695" xlink:href="#image3562" x="0" y="0" width="2560" height="256"
            transform="matrix(-0.15247354,0.73433767,-0.73433767,-0.15247354,912.30609,562.26045)" />
        <use id="use3697" xlink:href="#image3562" x="0" y="0" width="2560" height="256"
            transform="matrix(0.31896482,-0.67879412,0.67879412,0.31896482,46.096824,1312.6495)" />
        <use id="use3699" xlink:href="#image3562" x="0" y="0" width="2560" height="256"
            transform="matrix(0.28465933,0.69387972,-0.69387972,0.28465933,602.51223,193.34414)" />
        <use id="use3701" xlink:href="#image3562" x="0" y="0" width="2560" height="256"
            transform="matrix(0.73748546,-0.1364375,0.1364375,0.73748546,-514.41381,446.57171)" />
        <use id="use3703" xlink:href="#image3562" x="0" y="0" width="2560" height="256"
            transform="matrix(-0.08482312,0.74518792,-0.74518792,-0.08482312,808.49138,517.02649)" />
        <use id="use3705" xlink:href="#image3562" x="0" y="0" width="2560" height="256"
            transform="matrix(-0.06835682,0.7468784,-0.7468784,-0.06835682,1032.3663,485.0752)" />
        <use id="use3707" xlink:href="#image3562" x="0" y="0" width="2560" height="256"
            transform="matrix(-0.05121994,0.74824897,-0.74824897,-0.05121994,1008.5074,400.5869)" />
        <use id="use3709" xlink:href="#image3562" x="0" y="0" width="2560" height="256"
            transform="matrix(0.49203526,0.56604002,-0.56604002,0.49203526,591.44271,5.4568519)" />
        <use id="use3711" xlink:href="#image3562" x="0" y="0" width="2560" height="256"
            transform="matrix(-0.72514643,-0.19147495,0.19147495,-0.72514643,433.75177,1820.0352)" />
        <use id="use3719" xlink:href="#image3562" x="0" y="0" width="2560" height="256"
            transform="matrix(-0.49563674,0.53229646,-0.56288918,-0.53038056,1529.2881,1114.8202)" />
        <use id="use3723" xlink:href="#image3562" x="0" y="0" width="2560" height="256"
            transform="matrix(-0.64456432,0.38345383,-0.38345383,-0.64456432,1423.1799,1287.4734)" />
        <use id="use3725" xlink:href="#image3562" x="0" y="0" width="2560" height="256"
            transform="matrix(0.6666239,0.3436751,-0.3436751,0.6666239,332.75803,38.489555)" />
        <use id="use3731" xlink:href="#image3562" x="0" y="0" width="2560" height="256"
            transform="matrix(0.28539717,0.69357657,-0.69357657,0.28539717,1141.6123,141.50353)" />
        <use id="use3733" xlink:href="#image3562" x="0" y="0" width="2560" height="256"
            transform="matrix(0.54760327,0.51247503,-0.51247503,0.54760327,904.69974,117.90264)" />
        <use id="use3735" xlink:href="#image3562" x="0" y="0" width="2560" height="256"
            transform="matrix(0.42935226,0.61494442,-0.61494442,0.42935226,1346.9461,97.649655)" />
        <use id="use3737" xlink:href="#image3562" x="0" y="0" width="2560" height="256"
            transform="matrix(-0.52048753,-0.53999326,0.53999326,-0.52048753,1002.4331,1864.692)" />
        <use id="use3739" xlink:href="#image3562" x="0" y="0" width="2560" height="256"
            transform="matrix(0.70599251,0.25312955,-0.25312955,0.70599251,574.49113,111.66057)" />
        <use id="use3741" xlink:href="#image3562" x="0" y="0" width="2560" height="256"
            transform="matrix(0.62374414,0.41646518,-0.41646518,0.62374414,998.05943,-140.58495)" />
        <use id="use3743" xlink:href="#image3562" x="0" y="0" width="2560" height="256"
            transform="matrix(0.59951816,-0.45064175,0.45064175,0.59951816,-482.22334,851.94766)" />
        <use style="display:inline" id="use3639-1" xlink:href="#image3562" x="0" y="0" width="2560"
            height="256"
            transform="matrix(0.55476653,-0.50471189,0.50471189,0.55476653,-833.16757,752.20443)" />
        <use style="display:inline" id="use3649-1" xlink:href="#image3562" x="0" y="0" width="2560"
            height="256"
            transform="matrix(-0.50487753,0.5546158,-0.5546158,-0.50487753,1891.4196,862.29671)" />
        <use style="display:inline" id="use3649-1-7" xlink:href="#image3562" x="0" y="0"
            width="2560" height="256"
            transform="matrix(-0.50487753,0.5546158,-0.5546158,-0.50487753,2006.6442,856.72132)" />
        <use style="display:inline" id="use3709-4" xlink:href="#image3562" x="0" y="0" width="2560"
            height="256"
            transform="matrix(0.49203526,0.56604002,-0.56604002,0.49203526,338.25391,-110.41278)" />
    </g>
</svg>
