<?xml version="1.0" encoding="UTF-8" standalone="no"?><!-- Created with Inkscape (http://www.inkscape.org/) -->

<svg xmlns:dc="http://purl.org/dc/elements/1.1/" xmlns:cc="http://creativecommons.org/ns#"
    xmlns:rdf="http://www.w3.org/1999/02/22-rdf-syntax-ns#" xmlns="http://www.w3.org/2000/svg"
    xmlns:xlink="http://www.w3.org/1999/xlink"
    xmlns:sodipodi="http://sodipodi.sourceforge.net/DTD/sodipodi-0.dtd"
    xmlns:inkscape="http://www.inkscape.org/namespaces/inkscape" sodipodi:docname="mushroom2.svg"
    inkscape:version="0.48.5 r10040" version="1.1" id="svg2994" height="64" width="64"
    inkscape:export-filename="C:\AndroidDevelopment\Workspace\tomato\images\backgrounds\dynamic\mushroom2.png"
    inkscape:export-xdpi="90" inkscape:export-ydpi="90">
    <defs id="defs2996">
        <linearGradient id="linearGradient3971">
            <stop style="stop-color:#e6e6e6;stop-opacity:1;" offset="0" id="stop3973" />
            <stop style="stop-color:#9c9c9c;stop-opacity:1;" offset="1" id="stop3975" />
        </linearGradient>
        <linearGradient id="linearGradient3963">
            <stop style="stop-color:#d3bc5f;stop-opacity:1;" offset="0" id="stop3965" />
            <stop style="stop-color:#483e14;stop-opacity:1;" offset="1" id="stop3967" />
        </linearGradient>
        <linearGradient id="linearGradient3939">
            <stop style="stop-color:#bba134;stop-opacity:1;" offset="0" id="stop3941" />
            <stop style="stop-color:#786721;stop-opacity:1;" offset="1" id="stop3943" />
        </linearGradient>
        <linearGradient id="linearGradient3003">
            <stop style="stop-color:#ff5555;stop-opacity:1;" offset="0" id="stop3005" />
            <stop style="stop-color:#a50000;stop-opacity:1;" offset="1" id="stop3007" />
        </linearGradient>
        <linearGradient id="linearGradient3049">
            <stop style="stop-color:#cccccc;stop-opacity:1;" offset="0" id="stop3051" />
            <stop style="stop-color:#474747;stop-opacity:1;" offset="1" id="stop3053" />
        </linearGradient>
        <linearGradient id="linearGradient4401">
            <stop style="stop-color:#c8b7b7;stop-opacity:1;" offset="0" id="stop4403" />
            <stop style="stop-color:#392c2c;stop-opacity:1;" offset="1" id="stop4405" />
        </linearGradient>
        <linearGradient id="linearGradient4273">
            <stop style="stop-color:#ac9393;stop-opacity:1;" offset="0" id="stop4275" />
            <stop style="stop-color:#513e3e;stop-opacity:1;" offset="1" id="stop4277" />
        </linearGradient>
        <linearGradient inkscape:collect="always" xlink:href="#linearGradient4273"
            id="linearGradient4279" x1="0" y1="0" x2="0" y2="64" gradientUnits="userSpaceOnUse" />
        <linearGradient inkscape:collect="always" xlink:href="#linearGradient4401"
            id="linearGradient4407" x1="1.8397096" y1="11.562008" x2="1.8397096" y2="64"
            gradientUnits="userSpaceOnUse"
            gradientTransform="matrix(1.1325957,0,0,1.2204891,-2.0836472,-14.111305)" />
        <linearGradient inkscape:collect="always" xlink:href="#linearGradient3049"
            id="linearGradient3055" x1="0" y1="2.6171874e-006" x2="0" y2="64"
            gradientUnits="userSpaceOnUse" />
        <linearGradient inkscape:collect="always" xlink:href="#linearGradient3049"
            id="linearGradient3057" x1="0" y1="2.6171874e-006" x2="0" y2="64"
            gradientUnits="userSpaceOnUse"
            gradientTransform="matrix(0.54836596,0,0,1.0053854,14.725052,988.0561)" />
        <linearGradient inkscape:collect="always" xlink:href="#linearGradient3049"
            id="linearGradient3059" x1="0" y1="988.36218" x2="0" y2="1052.3622"
            gradientUnits="userSpaceOnUse" gradientTransform="translate(-0.25253814,0)" />
        <linearGradient inkscape:collect="always" xlink:href="#linearGradient3003"
            id="linearGradient3009" x1="28.75" y1="12.214286" x2="33.92857" y2="37.035713"
            gradientUnits="userSpaceOnUse" />
        <linearGradient inkscape:collect="always" xlink:href="#linearGradient3939"
            id="linearGradient3945" x1="28.413433" y1="991.98755" x2="31.42857" y2="1017.0943"
            gradientUnits="userSpaceOnUse"
            gradientTransform="matrix(1.4156857,0,0,1.4156857,-13.553491,-421.11065)" />
        <linearGradient inkscape:collect="always" xlink:href="#linearGradient3963"
            id="linearGradient3969" x1="30.267859" y1="31.946428" x2="30.908176" y2="18.066442"
            gradientUnits="userSpaceOnUse"
            gradientTransform="matrix(1.4156857,0,0,1.4156857,-13.553491,978.09956)" />
        <linearGradient inkscape:collect="always" xlink:href="#linearGradient3971"
            id="linearGradient3977" x1="27.857141" y1="1043.0764" x2="31.071428" y2="997.36212"
            gradientUnits="userSpaceOnUse" />
    </defs>
    <sodipodi:namedview id="base" pagecolor="#ffffff" bordercolor="#666666" borderopacity="1.0"
        inkscape:pageopacity="0.0" inkscape:pageshadow="2" inkscape:zoom="0.70000001"
        inkscape:cx="231.54568" inkscape:cy="141.2884" inkscape:document-units="px"
        inkscape:current-layer="layer1" showgrid="false" inkscape:showpageshadow="false"
        inkscape:snap-page="true" inkscape:snap-global="false" inkscape:window-width="1366"
        inkscape:window-height="705" inkscape:window-x="-8" inkscape:window-y="-8"
        inkscape:window-maximized="1" inkscape:snap-bbox="false" inkscape:bbox-paths="false"
        inkscape:object-paths="true" inkscape:snap-intersection-paths="true"
        inkscape:object-nodes="true" inkscape:snap-smooth-nodes="true" />
    <metadata id="metadata2999">
        <rdf:RDF>
            <cc:Work rdf:about="">
                <dc:format>image/svg+xml</dc:format>
                <dc:type rdf:resource="http://purl.org/dc/dcmitype/StillImage" />
                <dc:title></dc:title>
            </cc:Work>
        </rdf:RDF>
    </metadata>
    <g inkscape:label="Layer 1" inkscape:groupmode="layer" id="layer1"
        transform="translate(0,-988.36218)" style="display:inline">
        <path
            style="fill:url(#linearGradient3969);fill-opacity:1;stroke:#000000;stroke-width:0;stroke-linecap:butt;stroke-linejoin:miter;stroke-miterlimit:4;stroke-opacity:1;stroke-dasharray:none"
            d="m 1.415667,1017.3458 c 4.959752,1.1679 3.689604,1.6031 8.86291,2.3398 4.138081,0.5892 14.720685,1.508 18.742627,2.1389 5.077228,0.7965 9.998088,-0.2485 15.354656,-0.7398 5.5794,-0.5117 11.920803,-1.0358 17.459251,-2.7276 -27.416813,-8.4888 -41.234807,-2.8237 -60.419444,-1.0113 z"
            id="path3124" inkscape:connector-curvature="0" sodipodi:nodetypes="cssscc" />
        <path
            style="fill:url(#linearGradient3977);fill-opacity:1;stroke:#000000;stroke-width:0;stroke-linecap:butt;stroke-linejoin:miter;stroke-miterlimit:4;stroke-opacity:1;stroke-dasharray:none"
            d="m 26.741425,1012.4354 c -1.468039,5.3235 -7.01314,22.5288 -6.696992,29.6023 0.12308,2.7537 0.545041,4.5788 1.393324,4.6491 6.211979,17.029 26.325829,-22.4412 15.729161,-33.1788 -2.057267,-2.0846 -5.974695,-0.9662 -10.425493,-1.0726 z"
            id="path2999" inkscape:connector-curvature="0" sodipodi:nodetypes="cscsc" />
        <path
            style="fill:url(#linearGradient3945);fill-opacity:1;stroke:#000000;stroke-width:0;stroke-linecap:butt;stroke-linejoin:miter;stroke-miterlimit:4;stroke-opacity:1;stroke-dasharray:none"
            d="m 1.415667,1017.3458 c 2.360982,-0.2483 6.935717,0.3256 12.187058,-0.1711 1.960841,-0.1856 3.694058,-1.0236 5.934968,-1.2205 2.648722,-0.2327 5.496736,-0.4199 8.496889,-0.5275 3.598467,-0.1288 -7.070687,-0.456 9.727435,0.772 1.090017,0.079 3.079407,0.3529 4.190722,0.424 2.748158,0.1757 7.926737,0.6178 10.728614,0.6329 3.520115,0.014 5.562743,0.2635 9.153758,1.1015 1.380765,-3.0055 -3.379444,-9.7254 -9.316282,-16.213 -2.286475,-2.49873 -4.18913,-5.50923 -6.840807,-7.57723 -3.892054,-3.03536 -8.778722,-4.65938 -13.778144,-4.73734 -2.281927,-0.0355 -4.441958,1.61573 -6.681829,2.43686 -2.046291,0.75017 -4.180124,0.61932 -6.109765,1.69818 -3.833355,2.1434 -6.845868,4.1234 -9.920055,6.96683 -6.4696,5.9837 -9.90798198,14.0744 -7.772562,16.4144 z"
            id="path3001" inkscape:connector-curvature="0" sodipodi:nodetypes="csssssscssssssc" />
    </g>
</svg>
