<?xml version="1.0" encoding="UTF-8" standalone="no"?><!-- Created with Inkscape (http://www.inkscape.org/) -->

<svg xmlns:dc="http://purl.org/dc/elements/1.1/" xmlns:cc="http://creativecommons.org/ns#"
    xmlns:rdf="http://www.w3.org/1999/02/22-rdf-syntax-ns#" xmlns="http://www.w3.org/2000/svg"
    xmlns:xlink="http://www.w3.org/1999/xlink"
    xmlns:sodipodi="http://sodipodi.sourceforge.net/DTD/sodipodi-0.dtd"
    xmlns:inkscape="http://www.inkscape.org/namespaces/inkscape" width="128" height="128"
    id="svg4921" version="1.1" inkscape:version="0.48.5 r10040" sodipodi:docname="vector0.svg"
    inkscape:export-filename="C:\AndroidDevelopment\Workspace\tomato\projects\bat\new\bat0.png"
    inkscape:export-xdpi="90" inkscape:export-ydpi="90">
    <defs id="defs4923" />
    <sodipodi:namedview id="base" pagecolor="#ffffff" bordercolor="#666666" borderopacity="1.0"
        inkscape:pageopacity="0.0" inkscape:pageshadow="2" inkscape:zoom="2.828427"
        inkscape:cx="-4.8534494" inkscape:cy="52.25662" inkscape:current-layer="layer8"
        showgrid="true" inkscape:grid-bbox="true" inkscape:document-units="px"
        inkscape:window-width="1366" inkscape:window-height="705" inkscape:window-x="-8"
        inkscape:window-y="-8" inkscape:window-maximized="1" inkscape:snap-page="false"
        inkscape:snap-grids="false" />
    <metadata id="metadata4926">
        <rdf:RDF>
            <cc:Work rdf:about="">
                <dc:format>image/svg+xml</dc:format>
                <dc:type rdf:resource="http://purl.org/dc/dcmitype/StillImage" />
                <dc:title></dc:title>
            </cc:Work>
        </rdf:RDF>
    </metadata>
    <g inkscape:groupmode="layer" id="layer5" inkscape:label="3-old" sodipodi:insensitive="true"
        style="display:none">
        <image y="0" x="0" id="image3088"
            xlink:href="data:image/png;base64,iVBORw0KGgoAAAANSUhEUgAAAIAAAACACAYAAADDPmHLAAAABHNCSVQICAgIfAhkiAAAAdhJREFU eJzt3EFu4kAQQFFnNEfg/ifkDpPNbNJKIJbBTfPf26IoJPoql43NtgEAAAAAAAAAAAAAAAAAAACv 7mP2G9i27d+d11/hPb6tP7PfAHMJIE4AcX8n/M4vx/zL5fLlxev1uuvnv2Fn2MEEiBNAnADiZuwA ex3dGbjBBIgTQJwA4gQQJ4A4AcQJIO7lrwM4738uEyBOAHECiBNAnADiBBAngLjp1wGc189lAsQJ IE4AcTPuob93X//Z0s8RmABxAogTQNwZx79XO+Yf9VY7gwkQJ4A4AcTZAY5beicwAeIEECeAODvA Tr94TmGpncAEiBNAnADiBBAngDgBxAkg7oznAvaeF/tewBOZAHECiBNA3PRnA/cad4KRHWEfEyBO AHECiFtuBxg55h9jAsQJIE4AccvtAOMx32cFx5gAcQKIE0DccjvA6BfH/PF+hJvPKdR2ChMgTgBx Aohb4Tm2o/cIPvSexJFnA1maAOIEELf8dYBvPPQYfO+zh9WZAHECiBNA3DvuAA/1bsf8kQkQJ4A4 AcQtdd36v3vfO/jov2nvZxFL/U9NgDgBxAkgbsXrALvu8eM2EyBOAHECiFvqnPUH4w7w7L/p7OsQ T2UCxAkgTgAAAEGf/2VBFOQjBFUAAAAASUVORK5CYII= "
            height="128" width="128" />
    </g>
    <g inkscape:groupmode="layer" id="layer8" inkscape:label="3-New" style="display:none">
        <path sodipodi:nodetypes="ccccccccccccc"
            style="fill:#000000;fill-opacity:1;stroke:#000000;stroke-width:1.33142424;stroke-linecap:butt;stroke-linejoin:miter;stroke-miterlimit:4;stroke-opacity:1;stroke-dasharray:none;display:inline"
            d="m 55.50338,60.707037 c 0,0 -11.156258,0.915375 -11.039913,0.957259 l 22.542687,13.422496 -1.22303,3.851915 -16.336075,13.908248 19.955914,11.710295 0.223696,5.5141 4.529876,-0.71299 0.09915,4.38701 0.123243,5.5134 6.222547,4.43091 c 1.066623,-5.63144 4.619707,-48.221175 -7.757425,-55.922188 z"
            id="path5453-5-2-5" inkscape:connector-curvature="0" />
        <path sodipodi:nodetypes="ccccccccccccccccsccscccc"
            style="fill:#000000;fill-opacity:1;stroke:#000000;stroke-width:1.33142424;stroke-linecap:butt;stroke-linejoin:miter;stroke-miterlimit:4;stroke-opacity:1;stroke-dasharray:none;display:inline"
            d="m 24.026798,63.939624 3.963348,0 -0.396321,-25.769379 4.161517,-3.567013 7.134029,-0.198169 1.189006,6.150793 -1.189006,14.664394 3.368846,-21.211523 6.143192,1.189006 3.567014,5.548689 0.198159,3.772787 -5.548688,16.051565 16.893613,6.767217 9.332405,4.884952 2.011258,2.543201 -7.944982,1.166891 -8.986061,-5.069713 c -0.833848,-0.470435 10.322341,6.118556 10.322341,6.118556 l 6.779859,6.208419 1.152926,2.727209 c 0.06011,0.142175 -11.179574,-2.197028 -11.179574,-2.197028 L 45.079652,79.891649 24.423137,81.576703 z"
            id="path5459-7-2-7" inkscape:connector-curvature="0" />
        <rect ry="0"
            style="fill:#1a1a1a;fill-opacity:1;stroke:#000000;stroke-width:0;stroke-linecap:butt;stroke-linejoin:miter;stroke-miterlimit:4;stroke-opacity:1;stroke-dasharray:none;display:inline"
            id="rect5461-6-1-6" width="1.3848668" height="22.157127" x="31.517" y="38.281105" />
        <path sodipodi:nodetypes="ccccc"
            style="fill:#1a1a1a;fill-opacity:1;stroke:#000000;stroke-width:0;stroke-linecap:butt;stroke-linejoin:miter;stroke-miterlimit:4;stroke-opacity:1;stroke-dasharray:none;display:inline"
            d="m 44.245056,39.471704 -5.350524,22.392921 1.609022,0.791696 5.275259,-23.24009 z"
            id="path5463-1-6-1" inkscape:connector-curvature="0" />
        <path
            style="fill:#000000;stroke:#000000;stroke-width:1px;stroke-linecap:butt;stroke-linejoin:miter;stroke-opacity:1;display:inline"
            d="m 39.732235,74.171571 c -3.821413,34.195859 -1.497497,17.741584 1.239592,36.860919 l 11.639088,12.78552 c 0,0 0.525648,-14.56294 0.50736,-15.33578 3.408305,-2.86609 3.224128,-0.36489 3.068019,-4.56066 l -1.612243,-14.570482 8.518543,0.538406 4.083294,-8.296351 z"
            id="path3201-7" inkscape:connector-curvature="0" sodipodi:nodetypes="ccccccccc" />
    </g>
    <g inkscape:groupmode="layer" id="layer3" inkscape:label="2-Old" transform="translate(0,96)"
        style="display:none">
        <image y="-96" x="0" id="image3076"
            xlink:href="data:image/png;base64,iVBORw0KGgoAAAANSUhEUgAAAIAAAACACAYAAADDPmHLAAAABHNCSVQICAgIfAhkiAAAAe1JREFU eJzt3FGOokAYhVFm0ktw/yt0DzOPHUlP24xIFXznvBojmpu/LgW4LAAAAAAAAAAAAAAAAAAAAAAA wIx+jT6AZVn+PHl9hmO8rN+jD4CxBCBOAOI+Bnzmw5p/u90eXrzf75ve/wWdYQMTIE4A4gQgbkQH 2OrVzsA3TIA4AYgTgDgBiBOAOAGIE4C46fcBnPe/lwkQJwBxAhAnAHECECcAcQIQN3wfwHn9WCZA nADECUDciHvon93Xf7T0cwQmQJwAxAlA3BHr32xr/qsu1RlMgDgBiBOAOB1gf6fqCCZAnADECUCc DvCiHzy3MHUnMAHiBCBOAOJ0gJ2drROYAHECECcAcVOtR/9w6v8JnL0TmABxAhAnAHHDnw28uvWa /0UnWO+THNoJTIA4AYgTgDgdYLDRncAEiBOAOAGIO0MHeFgD12vk2a4NzMYEiBOAOAGIO0MHuLTR 1wpMgDgBiBOAuDPcE/jMpn2BHe7R2/U5hwOO91smQJwAxAlA3OX3Ad6whh7aEd69T2ACxAlAnADE Xb4DrB2w176pI/zHef+uTIA4AYgTgLgrXAtY23rP4Gy/waHXNkyAOAGIE4C42da/PZy9A6w926d4 6fuaAHECECcAcbOvf3vYen3+7L/Js++rA/BJAOIEIO4vkWp0WZ3HIugAAAAASUVORK5CYII= "
            height="128" width="128" />
    </g>
    <g inkscape:groupmode="layer" id="layer7" inkscape:label="2-New" style="display:none">
        <path sodipodi:nodetypes="ccccccccccccc"
            style="fill:#000000;fill-opacity:1;stroke:#000000;stroke-width:1.33142424;stroke-linecap:butt;stroke-linejoin:miter;stroke-miterlimit:4;stroke-opacity:1;stroke-dasharray:none;display:inline"
            d="m 76.024196,72.192319 c 0,0 -18.677073,-6.569907 -18.560728,-6.528023 l 1.057404,6.594069 3.77697,9.851916 10.434742,24.965859 8.520883,0.39228 c 0.01826,0.0283 13.637911,9.5245 13.637911,9.5245 l 7.623022,8.7294 6.75601,-3.05538 11.14837,4.15249 2.20478,0.49156 C 121.06411,126.08892 99.19761,88.510135 99.19761,88.510135 z"
            id="path5453-5-2" inkscape:connector-curvature="0" />
        <path sodipodi:nodetypes="ccccccccccccccccsccscccc"
            style="fill:#000000;fill-opacity:1;stroke:#000000;stroke-width:1.33142424;stroke-linecap:butt;stroke-linejoin:miter;stroke-miterlimit:4;stroke-opacity:1;stroke-dasharray:none;display:inline"
            d="m 24.026798,63.939624 3.963348,0 -0.396321,-25.769379 4.161517,-3.567013 7.134029,-0.198169 1.189006,6.150793 -1.189006,14.664394 3.368846,-21.211523 6.143192,1.189006 3.567014,5.548689 0.198159,3.772787 -5.548688,16.051565 16.893613,6.767217 9.332405,4.884952 2.011258,2.543201 -7.944982,1.166891 -8.986061,-5.069713 c -0.833848,-0.470435 10.322341,6.118556 10.322341,6.118556 l 6.779859,6.208419 1.152926,2.727209 c 0.06011,0.142175 -11.179574,-2.197028 -11.179574,-2.197028 L 45.079652,79.891649 24.423137,81.576703 z"
            id="path5459-7-2" inkscape:connector-curvature="0" />
        <rect ry="0"
            style="fill:#1a1a1a;fill-opacity:1;stroke:#000000;stroke-width:0;stroke-linecap:butt;stroke-linejoin:miter;stroke-miterlimit:4;stroke-opacity:1;stroke-dasharray:none;display:inline"
            id="rect5461-6-1" width="1.3848668" height="22.157127" x="31.517" y="38.281105" />
        <path sodipodi:nodetypes="ccccc"
            style="fill:#1a1a1a;fill-opacity:1;stroke:#000000;stroke-width:0;stroke-linecap:butt;stroke-linejoin:miter;stroke-miterlimit:4;stroke-opacity:1;stroke-dasharray:none;display:inline"
            d="m 44.245056,39.471704 -5.350524,22.392921 1.609022,0.791696 5.275259,-23.24009 z"
            id="path5463-1-6" inkscape:connector-curvature="0" />
        <path
            style="fill:#000000;stroke:#000000;stroke-width:1px;stroke-linecap:butt;stroke-linejoin:miter;stroke-opacity:1"
            d="m 41.500002,76.999998 7.25,40.750002 7.750001,9.25 13.25,0.5 -5.25,-4.5 -2.5,-5.25 7.25,-2.75 -8,-4.75 -0.25,-2.25 6.5,-1.25 17.000001,-19.500002 z"
            id="path3201" inkscape:connector-curvature="0" sodipodi:nodetypes="cccccccccccc" />
    </g>
    <g inkscape:groupmode="layer" id="layer2" inkscape:label="1-Old" style="display:none"
        transform="translate(0,96)" sodipodi:insensitive="true">
        <image y="-96" x="0" id="image3110"
            xlink:href="data:image/png;base64,iVBORw0KGgoAAAANSUhEUgAAAIAAAACACAYAAADDPmHLAAAABHNCSVQICAgIfAhkiAAAAddJREFU eJzt3VtuwjAQBVBadQnZ/wrZQ/muRYMSx4/4nvNZCZrSq5lhTMTjAQAAAAAAAACs5mv0BTTwW/n4 FV+Tf32PvgDGEoBwAhDujv1ut8dv27b74OfzWf7ojq/BZVSAcAIQTgDC/Yy+gDfKHr/bo8ue/6bH l6J7fkkFCCcA4QQg3IwzQOnPTHCi57NDBQgnAOEEINyM74l3e36tE2cBtZ8vOPr7ulIBwglAOAEI N8MeoKrHntgDHOr5DWaQT39v1xlBBQgnAOEEINyIGaBqt99g99/1rGG2swwVIJwAhBOAcCP20lU9 9+oe+un5JpgJmv6PVIBwAhBOAMLNcBbQVe3e4cS9h1XP3/rsQAUIJwDhBCDc9DPAbLvz1nuKEzPH oXspSypAOAEIJwDhpp8B7ubqs4TWM48KEE4AwglAuOEzwOj39a11ON+vuq9CBQgnAOEEINzwzwQu YKr7/Y9SAcIJQDgBCNdjD7Baz1+KChBOAMIJQLjhZwGjpX/HkAoQTgDCCUC4Hv3s7nuApXp+SQUI JwDhBCCcAIQTgHACEE4Awq3wHrdqz+AsgGgCEE4Awi3Vz06a6jt8elMBwglAOAEAAAAAAAAAAAAA AAAAAAAAAACY0AvkK3JKCt7kzAAAAABJRU5ErkJggg== "
            height="128" width="128" />
    </g>
    <g inkscape:groupmode="layer" id="layer6" inkscape:label="1-New" style="display:none">
        <path sodipodi:nodetypes="cccccccccccccccccc"
            style="fill:#000000;fill-opacity:1;stroke:#000000;stroke-width:1.33142424;stroke-linecap:butt;stroke-linejoin:miter;stroke-miterlimit:4;stroke-opacity:1;stroke-dasharray:none;display:inline"
            d="m 66.956547,13.951394 -14.862562,2.179848 -11.493714,12.286384 -1.783517,0.594496 -0.990835,-6.935863 -6.402356,14.95078 20.411259,33.886646 c 24.213276,1.519284 6.40982,-8.057735 10.703446,-6.538451 l -4.560254,-17.439815 7.813865,3.588478 -3.368838,-0.792668 -3.440277,-3.004338 2.690277,-7.324716 4.70418,-1.41152 -5.298686,-2.75 -3.876203,-5.736783 15.897103,-16.146639 z"
            id="path4943-1" inkscape:connector-curvature="0" />
        <path
            style="fill:#1a1a1a;fill-opacity:1;stroke:#000000;stroke-width:0;stroke-linecap:butt;stroke-linejoin:miter;stroke-miterlimit:4;stroke-opacity:1;stroke-dasharray:none;display:inline"
            d="m 70.923684,14.968591 c -0.79267,0 -18.58933,3.032013 -18.58933,3.032013 l -15.284418,14.952128 -0.19085,-8.119974 -1.257222,9.240157 -3.123405,16.827322 0.97228,0.224736 3.368118,-15.979276 5.666732,5.267226 12.269634,12.428687 c 0,0 7.694302,3.430845 10.51979,3.661859 L 55.984949,52.373773 C 50.749419,47.1004 37.059806,33.905826 37.059806,33.905826 l 12.163987,2.827994 15.810564,2.023157 4.568829,-0.974075 c -1.669745,-0.40464 -2.835533,0.239701 -4.614921,-0.0062 C 56.458589,36.598343 45.744642,35.691107 37.869472,33.259708 L 52.82716,18.780046 z"
            id="path5465-1" inkscape:connector-curvature="0"
            sodipodi:nodetypes="ccccccccccccccccsccc" />
        <path sodipodi:nodetypes="ccscccccccc"
            style="fill:#000000;fill-opacity:1;stroke:#000000;stroke-width:1.33142424;stroke-linecap:butt;stroke-linejoin:miter;stroke-miterlimit:4;stroke-opacity:1;stroke-dasharray:none;display:inline"
            d="m 86.826946,32.349593 9.161393,-1.959333 c 0,0 -20.521121,1.566827 -27.714143,6.552059 -9.542147,6.613329 -16.560728,28.221978 -16.560728,28.221978 l 13.557404,6.594069 0.52697,0.601916 15.455625,-7.641866 10.510932,-4.746097 11.904381,0.597108 12.70478,4.991561 C 108.69819,50.147747 112.93727,38.836436 86.826946,32.349593 z"
            id="path5453-5" inkscape:connector-curvature="0" />
        <path sodipodi:nodetypes="ccccccccccccccccsccscccc"
            style="fill:#000000;fill-opacity:1;stroke:#000000;stroke-width:1.33142424;stroke-linecap:butt;stroke-linejoin:miter;stroke-miterlimit:4;stroke-opacity:1;stroke-dasharray:none;display:inline"
            d="m 24.026798,63.939625 3.963348,0 -0.396321,-25.769379 4.161517,-3.567013 7.134029,-0.198169 1.189006,6.150793 -1.189006,14.664394 3.368846,-21.211523 6.143192,1.189006 3.567014,5.548689 0.198159,3.772787 -5.548688,16.051565 16.893613,6.767217 9.332405,4.884952 2.011258,2.543201 -7.944982,1.166891 -8.986061,-5.069713 c -0.833848,-0.470435 10.322341,6.118556 10.322341,6.118556 l 6.779859,6.208419 1.152926,2.727209 c 0.06011,0.142175 -11.179574,-2.197028 -11.179574,-2.197028 L 45.079652,79.89165 24.423137,81.576704 z"
            id="path5459-7" inkscape:connector-curvature="0" />
        <rect ry="0"
            style="fill:#1a1a1a;fill-opacity:1;stroke:#000000;stroke-width:0;stroke-linecap:butt;stroke-linejoin:miter;stroke-miterlimit:4;stroke-opacity:1;stroke-dasharray:none;display:inline"
            id="rect5461-6" width="1.3848668" height="22.157127" x="31.517" y="38.281105" />
        <path sodipodi:nodetypes="ccccc"
            style="fill:#1a1a1a;fill-opacity:1;stroke:#000000;stroke-width:0;stroke-linecap:butt;stroke-linejoin:miter;stroke-miterlimit:4;stroke-opacity:1;stroke-dasharray:none;display:inline"
            d="m 44.245056,39.471705 -5.350524,22.392921 1.609022,0.791696 5.275259,-23.24009 z"
            id="path5463-1" inkscape:connector-curvature="0" />
        <path inkscape:export-ydpi="360" inkscape:export-xdpi="360"
            inkscape:export-filename="C:\Android Development\Eclipse Workspace\tomato\images\actors\bat\vector\vector0.png"
            sodipodi:nodetypes="cccccccccccccccccccccc"
            style="fill:#1a1a1a;fill-opacity:1;stroke:#000000;stroke-width:0;stroke-linecap:butt;stroke-linejoin:miter;stroke-miterlimit:4;stroke-opacity:1;stroke-dasharray:none;display:inline"
            d="M 114.32617,64.476472 103.10454,42.1785 91.782929,34.545365 85.899892,34.834518 c -0.09921,0.653534 9.660814,-3.855421 8.535461,-4.344233 L 69.114027,38.430199 54.026001,62.206974 55.375,62.627349 c -0.853919,0.853872 10.004889,-17.703178 15.184559,-22.351553 0.17967,-0.148375 14.526134,-3.492581 14.526134,-3.492581 l 0.344846,19.091844 5.5371,3.40544 -3.91663,-4.731448 -0.408362,-6.916241 0.198542,-9.54758 2.472736,-1.392207 2.941034,11.698698 c 1.476115,4.50371 10.385651,11.975488 10.385651,11.975488 l -7.580371,-9.266263 -5.097948,-14.970552 13.736439,9.599574 z"
            id="path5467-4" inkscape:connector-curvature="0" />
    </g>
    <g id="layer1" inkscape:label="0-Old" inkscape:groupmode="layer" style="display:none"
        transform="translate(0,96)" sodipodi:insensitive="true">
        <image y="-96" x="0" id="image3099"
            xlink:href="data:image/png;base64,iVBORw0KGgoAAAANSUhEUgAAAIAAAACACAYAAADDPmHLAAAABHNCSVQICAgIfAhkiAAAAhRJREFU eJzt3EFugzAQBdCm6hFy/xPmDu06FoISbBjz31tGSWSir5nBQB5f9/N78POPLqs4z97jfTu+744L YUICEE4Aws3W75a89cDn87n65tfr1b5U/TdY7fHt8e49PhUgnACEE4BwP1cvYEHb89oettrzF3pg dbt6fOvoTKMChBOAcAIQruIM0Kre87dmltX3f9DjW4f2MVSAcAIQTgDClZ8Bqvf8hfUd3bs/lQoQ TgDCCUC48jNAa+u8ea+Fnn3ovLrDef2pVIBwAhBOAMJNNwO0OvTUU/fuq80IKkA4AQgnAOGmmwHa Hlltb33L1vrPPh4VIJwAhBOAcBWei+t6/bzDffSH7kHs3cM9F8BQAhBOAMJdsQ8w9D7/Dz5f+rkD zwUwlACEE4Bw5a8FDNj7Xz3vP6rDek/dm1EBwglAOAEIV34GGKBrz5+dChBOAMIJQLjyM8DovfnR 31/9HkYVIJwAhBOAcOVngNHO7sFX9/yWChBOAMIJQLjLZ4BqPbGDCs9a/JsKEE4AwglAuCv61d2u x0/V81sqQDgBCCcA4c7oX7P3/Kl7/BYVIJwAhBOAcPEzwOj/4KlOBQgnAOEEIFz8DPAPt+r5LRUg nACEE4BwAhBOAMIJQDgBCHeHc9xD+wyuBRBNAMIJQLhb9bMPbc0Qt/6NVIBwAhBOAAAAAAAAAAAA AAAAAAAAAAAAAAAAivgDM/CQZOXBbnYAAAAASUVORK5CYII= "
            height="128" width="128" />
    </g>
    <g inkscape:groupmode="layer" id="layer4" inkscape:label="0-New" style="display:inline"
        transform="translate(0,96)">
        <path sodipodi:nodetypes="cccccccccccccccccc"
            style="fill:#000000;fill-opacity:1;stroke:#000000;stroke-width:1.33142424;stroke-linecap:butt;stroke-linejoin:miter;stroke-miterlimit:4;stroke-opacity:1;stroke-dasharray:none"
            d="m 65.706547,-94.048609 -14.862562,2.179848 -11.493714,12.286384 -1.783517,0.594496 -0.990835,-6.935863 -5.152356,26.950781 20.411259,33.886646 c 24.213276,1.519284 6.40982,-8.057735 10.703446,-6.538451 l -4.560254,-17.439815 9.313865,-4.161522 -3.368838,-0.792668 -2.690277,-5.754338 2.690277,-7.324716 4.95418,-4.16152 -5.548686,0 -4.626203,-2.986783 13.147103,-20.39664 z"
            id="path4943" inkscape:connector-curvature="0" />
        <path
            style="fill:#1a1a1a;fill-opacity:1;stroke:#000000;stroke-width:0;stroke-linecap:butt;stroke-linejoin:miter;stroke-miterlimit:4;stroke-opacity:1;stroke-dasharray:none"
            d="m 70.423684,-93.781412 c -0.79267,0 -18.58933,3.032013 -18.58933,3.032013 l -15.284418,14.952128 -0.19085,-8.119974 -1.257222,9.240157 -3.123405,16.827322 0.97228,0.224736 3.368118,-15.979276 5.666732,5.267226 12.269634,12.428687 c 0,0 7.694302,3.430845 10.51979,3.661859 l -9.290064,-4.129696 c -5.23553,-5.273373 -18.925143,-18.467947 -18.925143,-18.467947 l 12.163987,2.827994 15.810564,2.023157 4.568829,-0.974075 c -1.669745,-0.40464 -2.835533,0.239701 -4.614921,-0.0062 -8.529676,-1.178359 -19.243623,-2.085595 -27.118793,-4.516994 L 52.32716,-89.969957 z"
            id="path5465" inkscape:connector-curvature="0"
            sodipodi:nodetypes="ccccccccccccccccsccc" />
        <path sodipodi:nodetypes="ccccccccccccccc"
            style="fill:#000000;fill-opacity:1;stroke:#000000;stroke-width:1.33142424;stroke-linecap:butt;stroke-linejoin:miter;stroke-miterlimit:4;stroke-opacity:1;stroke-dasharray:none"
            d="m 99.669995,-88.106108 -21.093049,18.705699 2.411392,-11.209334 -14.214142,14.30206 -15.060728,35.471978 13.557404,6.594069 11.77697,-14.648085 7.705625,-3.391865 7.010932,6.253903 7.904378,-22.152893 12.485933,1.980756 -7.53115,-17.239196 3.56765,-3.569714 c 0.0259,0.177219 16.75078,-16.401887 17.77702,-16.868269 -8.90008,-0.504418 -17.74463,3.573633 -26.298235,5.770891 z"
            id="path5453" inkscape:connector-curvature="0" />
        <path inkscape:export-ydpi="360" inkscape:export-xdpi="360"
            inkscape:export-filename="C:\Android Development\Eclipse Workspace\tomato\images\actors\bat\vector\vector0.png"
            sodipodi:nodetypes="cccccccccscccccccccccccc"
            style="fill:#1a1a1a;fill-opacity:1;stroke:#000000;stroke-width:0;stroke-linecap:butt;stroke-linejoin:miter;stroke-miterlimit:4;stroke-opacity:1;stroke-dasharray:none"
            d="m 122.57617,-93.523528 -22.971635,7.202029 -18.571606,17.116866 -5.883037,0.289153 1.118479,-2.281619 2.666982,-6.062614 -8.321325,9.439914 c -0.415669,1.367494 1.968015,-6.665555 -16.588027,34.026775 l 1.348999,0.420375 c 3.146081,-5.896128 5.812565,-13.415129 9.434559,-20.601553 2.463307,-4.887471 6.554345,-10.777893 8.776134,-14.742581 l 16.469851,25.341844 1.0371,6.65544 0.583366,-6.981448 -11.783363,-18.041241 -2.676458,-4.04758 5.472736,0.357793 15.816032,1.823698 8.777673,5.519353 4.60798,1.706135 -12.080372,-8.266263 -19.222947,-2.595552 20.236439,-17.525427 z"
            id="path5467" inkscape:connector-curvature="0" />
        <path sodipodi:nodetypes="ccccccccccccccccsccscccc"
            style="fill:#000000;fill-opacity:1;stroke:#000000;stroke-width:1.33142424;stroke-linecap:butt;stroke-linejoin:miter;stroke-miterlimit:4;stroke-opacity:1;stroke-dasharray:none"
            d="m 24.026798,-32.060377 3.963348,0 -0.396321,-25.769379 4.161517,-3.567013 7.134029,-0.198169 1.189006,6.150793 -1.189006,14.664394 3.368846,-21.211523 6.143192,1.189006 3.567014,5.548689 0.198159,3.772787 -5.548688,16.051565 16.893613,6.767217 9.332405,4.884952 2.011258,2.543201 -7.944982,1.166891 -8.986061,-5.069713 c -0.833848,-0.470435 10.322341,6.118556 10.322341,6.118556 l 6.779859,6.208419 1.152926,2.727209 c 0.06011,0.142175 -11.179574,-2.197028 -11.179574,-2.197028 l -19.920027,-3.828829 -20.656515,1.685054 z"
            id="path5459" inkscape:connector-curvature="0" />
        <rect ry="0"
            style="fill:#1a1a1a;fill-opacity:1;stroke:#000000;stroke-width:0;stroke-linecap:butt;stroke-linejoin:miter;stroke-miterlimit:4;stroke-opacity:1;stroke-dasharray:none"
            id="rect5461" width="1.3848668" height="22.157127" x="31.517" y="-57.718899" />
        <path sodipodi:nodetypes="ccccc"
            style="fill:#1a1a1a;fill-opacity:1;stroke:#000000;stroke-width:0;stroke-linecap:butt;stroke-linejoin:miter;stroke-miterlimit:4;stroke-opacity:1;stroke-dasharray:none"
            d="m 44.245056,-56.528297 -5.350524,22.392921 1.609022,0.791696 5.275259,-23.24009 z"
            id="path5463" inkscape:connector-curvature="0" />
    </g>
</svg>
